…
``` r
aggregate_df =
  homicide_df %>%
  group_by(city_state) %>% 
  summarize( 
    hom_total = n(), 
    hom_unsolved = sum(resolved == "unsolved")) %>% 
  print()
```

    ## `summarise()` ungrouping output (override with `.groups` argument)

    ## # A tibble: 50 x 3
    ##    city_state     hom_total hom_unsolved
    ##    <chr>              <int>        <int>
    ##  1 Albuquerque_NM       378          146
    ##  2 Atlanta_GA           973          373
    ##  3 Baltimore_MD        2827         1825
    ##  4 Baton Rouge_LA       424          196
    ##  5 Birmingham_AL        800          347
    ##  6 Boston_MA            614          310
    ##  7 Buffalo_NY           521          319
    ##  8 Charlotte_NC         687          206
    ##  9 Chicago_IL          5535         4073
    ## 10 Cincinnati_OH        694          309
    ## # ... with 40 more rows
…
``` r
results_df = 
  aggregate_df %>%
  mutate(
    prop_tests = map2(.x = hom_unsolved, .y = hom_total, ~prop.test(x = .x, n = .y)), 
    tidy_tests = map(.x = prop_tests, ~broom::tidy(.x))
  ) %>% 
  select(-prop_tests) %>% 
  unnest(tidy_tests) %>% 
  select(city_state, estimate, conf.low, conf.high) %>% 
  print()
```

    ## # A tibble: 50 x 4
    ##    city_state     estimate conf.low conf.high
    ##    <chr>             <dbl>    <dbl>     <dbl>
    ##  1 Albuquerque_NM    0.386    0.337     0.438
    ##  2 Atlanta_GA        0.383    0.353     0.415
    ##  3 Baltimore_MD      0.646    0.628     0.663
    ##  4 Baton Rouge_LA    0.462    0.414     0.511
    ##  5 Birmingham_AL     0.434    0.399     0.469
    ##  6 Boston_MA         0.505    0.465     0.545
    ##  7 Buffalo_NY        0.612    0.569     0.654
    ##  8 Charlotte_NC      0.300    0.266     0.336
    ##  9 Chicago_IL        0.736    0.724     0.747
    ## 10 Cincinnati_OH     0.445    0.408     0.483
    ## # ... with 40 more rows
…
  #return both values
  return(bind_cols(output, sim_data))
}
```

Now, we will run the function 5,000 times

``` r
sim_results = 
  rerun(5000, sim_mean(mu = 0)) %>% 
  bind_rows() %>% 
  print()
```

    ## # A tibble: 5,000 x 2
    ##    p_value mu_hat
    ##      <dbl>  <dbl>
    ##  1  0.629   0.412
    ##  2  0.368   0.664
    ##  3  0.534   0.551
    ##  4  0.487   0.567
    ##  5  0.0599 -1.65 
    ##  6  0.229   1.19 
    ##  7  0.738   0.334
    ##  8  0.209  -1.19 
    ##  9  0.887   0.122
    ## 10  0.472   0.684
    ## # ... with 4,990 more rows
…
